Crop cooling paths by time and temperature — crop_paths • thermoclustr
…
    Value

    object of class "HeFTy" (output of read_hefty())

    Note

    Only the path slot of x will be modified.

    Examples

# example data
data(tT_paths)
crop_paths(tT_paths, time = c(-Inf, 300), temperature = c(-Inf, 200))
#> $paths
#> # A tibble: 1,465 × 5
#>    segment  time temperature Fit   Comp_GOF
#>    <chr>   <dbl>       <dbl> <fct>    <dbl>
#>  1 1        40          66.5 Good     0.889
#>  2 1        37.9        66.0 Good     0.889
#>  3 1        37.8        58.4 Good     0.889
#>  4 1        34.9        54.2 Good     0.889
#>  5 1        29.3        35.1 Good     0.889
#>  6 1         0          24.5 Good     0.889
#>  7 10       40          48.9 Good     0.671
#>  8 10       27.4        29.0 Good     0.671
#>  9 10       11.4        25.5 Good     0.671
#> 10 10        0          23.7 Good     0.671
#> # ℹ 1,455 more rows
…
