Densify Paths — densify_paths • thermoclustr
…
    Note

    A large sample number n will require a long(!)
processing time for this function and subsequent methods such as
plot_path_density() or cluster_paths().

If only paths within a specified GOF range should be densified, create a
subset of the data beforehand using either subset() or dplyr::filter().

    Examples

data(tT_paths)
densify_paths(tT_paths)
#> # A tibble: 593 × 3
#>     time temperature segment
#>    <dbl>       <dbl> <chr>  
#>  1  40          66.5 1      
#>  2  39.3        66.3 1      
#>  3  38.6        66.1 1      
#>  4  37.9        66.0 1      
#>  5  37.9        65.0 1      
#>  6  37.8        64.1 1      
#>  7  37.8        63.1 1      
#>  8  37.8        62.2 1      
#>  9  37.8        61.2 1      
#> 10  37.8        60.3 1      
#> # ℹ 583 more rows
…
