…
# using a random subset of paths (in case of too large data)
set.seed(20250411)

## select 100 random path segments:
random_segments <- sample(unique(tT_paths$paths$segment), size = 100)
tT_paths_rnd <- subset(tT_paths$paths, segment %in% random_segments)

path_diss(tT_paths_rnd)
#> $paths
#> Simple feature collection with 100 features and 1 field
#> Geometry type: LINESTRING
#> Dimension:     XY
#> Bounding box:  xmin: 0 ymin: 22.07009 xmax: 40 ymax: 77.35033
#> CRS:           NA
#> # A tibble: 100 × 2
#>    segment                                                              geometry
#>  * <chr>                                                            <LINESTRING>
#>  1 103           (40 50.74153, 12.43856 32.18865, 3.535961 31.50126, 0 24.22726)
#>  2 104                               (40 32.5816, 11.58253 27.67968, 0 24.78033)
#>  3 106           (40 52.69917, 38.76891 51.25342, 36.94803 31.81484, 0 23.62635)
#>  4 107     (40 65.13909, 28.33821 62.18189, 11.29618 59.86096, 4.26043 59.0181,…
#>  5 108             (40 45.27325, 16.5722 29.4497, 7.504684 27.36688, 0 23.09207)
#>  6 114     (40 70.98284, 21.495 69.79032, 11.61827 28.12625, 4.998406 24.0864, …
#>  7 115     (40 35.71975, 35.94026 30.10016, 18.81585 27.99668, 1.619752 26.0674…
#>  8 117           (40 67.89329, 37.69107 67.85121, 35.08563 46.41381, 0 22.07818)
#>  9 129            (40 48.15356, 3.293393 25.97863, 3.13811 22.94384, 0 22.86141)
#> 10 13             (40 60.15399, 21.15045 58.4316, 5.623287 42.09443, 0 24.74655)
#> # ℹ 90 more rows
…
